../Core/Src/main.c:63:5:main	16	static
../Core/Src/main.c:115:6:SystemClock_Config	88	static
../Core/Src/main.c:169:13:MX_GPIO_Init	40	static
../Core/Src/main.c:207:6:Error_Handler	4	static,ignoring_inline_asm
